<?xml version="1.0" encoding="UTF-8" standalone="no"?>
<!-- Created with Inkscape (http://www.inkscape.org/) -->

<svg
   xmlns:dc="http://purl.org/dc/elements/1.1/"
   xmlns:cc="http://creativecommons.org/ns#"
   xmlns:rdf="http://www.w3.org/1999/02/22-rdf-syntax-ns#"
   xmlns:svg="http://www.w3.org/2000/svg"
   xmlns="http://www.w3.org/2000/svg"
   xmlns:sodipodi="http://sodipodi.sourceforge.net/DTD/sodipodi-0.dtd"
   xmlns:inkscape="http://www.inkscape.org/namespaces/inkscape"
   width="320"
   height="100"
   viewBox="0 0 84.666668 26.458333"
   version="1.1"
   id="svg8"
   inkscape:version="0.92.3 (2405546, 2018-03-11)"
   sodipodi:docname="tweet-panel.svg"
   inkscape:export-filename="/home/rwxrob/repos/gitlab.com/rwxrob/live/assets/chat-panel.png"
   inkscape:export-xdpi="96"
   inkscape:export-ydpi="96">
  <defs
     id="defs2" />
  <sodipodi:namedview
     id="base"
     pagecolor="#2b383d"
     bordercolor="#666666"
     borderopacity="1.0"
     inkscape:pageopacity="0"
     inkscape:pageshadow="2"
     inkscape:zoom="0.98994949"
     inkscape:cx="-37.266015"
     inkscape:cy="216.87297"
     inkscape:document-units="px"
     inkscape:current-layer="layer1"
     showgrid="false"
     units="px"
     inkscape:pagecheckerboard="false"
     inkscape:window-width="1920"
     inkscape:window-height="1052"
     inkscape:window-x="0"
     inkscape:window-y="0"
     inkscape:window-maximized="1"
     fit-margin-top="0"
     fit-margin-left="0"
     fit-margin-right="0"
     fit-margin-bottom="0" />
  <metadata
     id="metadata5">
    <rdf:RDF>
      <cc:Work
         rdf:about="">
        <dc:format>image/svg+xml</dc:format>
        <dc:type
           rdf:resource="http://purl.org/dc/dcmitype/StillImage" />
        <dc:title></dc:title>
        <cc:license
           rdf:resource="http://creativecommons.org/licenses/by-sa/4.0/" />
      </cc:Work>
      <cc:License
         rdf:about="http://creativecommons.org/licenses/by-sa/4.0/">
        <cc:permits
           rdf:resource="http://creativecommons.org/ns#Reproduction" />
        <cc:permits
           rdf:resource="http://creativecommons.org/ns#Distribution" />
        <cc:requires
           rdf:resource="http://creativecommons.org/ns#Notice" />
        <cc:requires
           rdf:resource="http://creativecommons.org/ns#Attribution" />
        <cc:permits
           rdf:resource="http://creativecommons.org/ns#DerivativeWorks" />
        <cc:requires
           rdf:resource="http://creativecommons.org/ns#ShareAlike" />
      </cc:License>
    </rdf:RDF>
  </metadata>
  <g
     inkscape:label="Layer 1"
     inkscape:groupmode="layer"
     id="layer1"
     transform="translate(4.9999999e-7,-270.54167)">
    <rect
       style="opacity:0.98999999;fill:#000000;fill-opacity:1;stroke:#000000;stroke-width:0;stroke-miterlimit:4;stroke-dasharray:none;stroke-opacity:1"
       id="rect868"
       width="84.666664"
       height="26.458332"
       x="8.3823244e-07"
       y="270.54166"
       inkscape:export-xdpi="96"
       inkscape:export-ydpi="96" />
    <flowRoot
       xml:space="preserve"
       id="flowRoot836"
       style="font-style:normal;font-variant:normal;font-weight:bold;font-stretch:normal;font-size:192px;line-height:1.25;font-family:bitter;-inkscape-font-specification:'bitter, Bold';font-variant-ligatures:normal;font-variant-caps:normal;font-variant-numeric:normal;font-feature-settings:normal;text-align:center;letter-spacing:0px;word-spacing:0px;writing-mode:lr-tb;text-anchor:middle;fill:#000000;fill-opacity:1;stroke:none"><flowRegion
         id="flowRegion838"><rect
           id="rect840"
           width="812.16266"
           height="319.20819"
           x="385.87827"
           y="316.32468" /></flowRegion><flowPara
         id="flowPara842" /></flowRoot>    <text
       xml:space="preserve"
       style="font-style:normal;font-variant:normal;font-weight:bold;font-stretch:normal;font-size:97.31742096px;line-height:1.25;font-family:bitter;-inkscape-font-specification:'bitter, Bold';font-variant-ligatures:normal;font-variant-caps:normal;font-variant-numeric:normal;font-feature-settings:normal;text-align:center;letter-spacing:0px;word-spacing:0px;writing-mode:lr-tb;text-anchor:middle;fill:#ffffff;fill-opacity:1;stroke:none;stroke-width:0.50686151"
       x="188.25598"
       y="237.76006"
       id="text832-3"><tspan
         sodipodi:role="line"
         id="tspan830-6"
         x="188.25598"
         y="323.86316"
         style="line-height:0.80000001;fill:#ffffff;stroke-width:0.50686151" /><tspan
         sodipodi:role="line"
         x="188.25598"
         y="445.50995"
         style="line-height:0.80000001;fill:#ffffff;stroke-width:0.50686151"
         id="tspan834-7" /></text>
    <text
       xml:space="preserve"
       style="font-style:normal;font-variant:normal;font-weight:bold;font-stretch:normal;font-size:97.31742096px;line-height:1.25;font-family:bitter;-inkscape-font-specification:'bitter, Bold';font-variant-ligatures:normal;font-variant-caps:normal;font-variant-numeric:normal;font-feature-settings:normal;text-align:center;letter-spacing:0px;word-spacing:0px;writing-mode:lr-tb;text-anchor:middle;fill:#ffffff;fill-opacity:1;stroke:none;stroke-width:0.50686151"
       x="190.39413"
       y="245.24361"
       id="text832-5"><tspan
         sodipodi:role="line"
         id="tspan830-3"
         x="190.39413"
         y="331.34671"
         style="line-height:0.80000001;fill:#ffffff;stroke-width:0.50686151" /><tspan
         sodipodi:role="line"
         x="190.39413"
         y="452.9935"
         style="line-height:0.80000001;fill:#ffffff;stroke-width:0.50686151"
         id="tspan834-5" /></text>
    <text
       xml:space="preserve"
       style="font-style:normal;font-variant:normal;font-weight:normal;font-stretch:normal;font-size:23.60095596px;line-height:1.25;font-family:'Spy Agency';-inkscape-font-specification:'Spy Agency, Normal';font-variant-ligatures:normal;font-variant-caps:normal;font-variant-numeric:normal;font-feature-settings:normal;text-align:center;letter-spacing:0px;word-spacing:0px;writing-mode:lr-tb;text-anchor:middle;fill:#ffffff;fill-opacity:1;stroke:none;stroke-width:0.12292167"
       x="43.970722"
       y="280.54034"
       id="text872"
       inkscape:export-xdpi="96"
       inkscape:export-ydpi="96"
       transform="scale(0.96266707,1.0387807)"><tspan
         sodipodi:role="line"
         id="tspan870"
         x="43.970722"
         y="280.54034"
         style="font-style:normal;font-variant:normal;font-weight:normal;font-stretch:normal;font-size:23.60095596px;font-family:'Spy Agency';-inkscape-font-specification:'Spy Agency, Normal';font-variant-ligatures:normal;font-variant-caps:normal;font-variant-numeric:normal;font-feature-settings:normal;text-align:center;writing-mode:lr-tb;text-anchor:middle;fill:#ffffff;stroke-width:0.12292167"
         dx="0 -5.7004089 -5.9595184 -2.8502042 -5.1821899">tweet</tspan></text>
  </g>
</svg>
